{
  "required": true,
  "minVersion": "0.8",
  "package": "net.sssubtlety.custom_piglin_bartering.mixin",
  "compatibilityLevel": "JAVA_8",
  "mixins": [
    "PiglinBrainMixin"
  ],
  "injectors": {
    "defaultRequire": 1
  }
}
